%YAML 1.1
%TAG !u! tag:unity3d.com,2011:
--- !u!114 &11400000
MonoBehaviour:
  m_ObjectHideFlags: 0
  m_CorrespondingSourceObject: {fileID: 0}
  m_PrefabInstance: {fileID: 0}
  m_PrefabAsset: {fileID: 0}
  m_GameObject: {fileID: 0}
  m_Enabled: 1
  m_EditorHideFlags: 0
  m_Script: {fileID: 11500000, guid: fd5edc52ccca70d418329c1e55e236eb, type: 3}
  m_Name: NoviceWand
  m_EditorClassIdentifier: 
  id: 24
  prefab: {fileID: 1762718630103098337, guid: 50d0a354e3e8bcd46957f284f918ed95, type: 3}
  itemType: magic
  itemName: Novice Wand
  damage: 0
  magic: 8
  shield: 0
  heal: 0
  hp: 0
  recipe: {fileID: 11400000, guid: 0c712d3946c58504d9d6a11cfbd709d1, type: 2}
