%YAML 1.1
%TAG !u! tag:unity3d.com,2011:
--- !u!114 &11400000
MonoBehaviour:
  m_ObjectHideFlags: 0
  m_CorrespondingSourceObject: {fileID: 0}
  m_PrefabInstance: {fileID: 0}
  m_PrefabAsset: {fileID: 0}
  m_GameObject: {fileID: 0}
  m_Enabled: 1
  m_EditorHideFlags: 0
  m_Script: {fileID: 11500000, guid: d9e862a6fc4892b4ea5c60dc7f7e0df3, type: 3}
  m_Name: Level30_Start_Dialogue
  m_EditorClassIdentifier: 
  speakerName: Goblin General
  sentences:
  - Here you are human. I was waiting for you.
  - I was told you wanted to come back to your place uh ?
  - You see... a river is blocking your way and we kinda eradicated the only way
    to cross it
  - I'm a bit surprised my sbires weren't enough to take you down. So Imma make sure
    myself you won't bother us ever again !
  - Say your prayers peasant !
