%YAML 1.1
%TAG !u! tag:unity3d.com,2011:
--- !u!114 &11400000
MonoBehaviour:
  m_ObjectHideFlags: 0
  m_CorrespondingSourceObject: {fileID: 0}
  m_PrefabInstance: {fileID: 0}
  m_PrefabAsset: {fileID: 0}
  m_GameObject: {fileID: 0}
  m_Enabled: 1
  m_EditorHideFlags: 0
  m_Script: {fileID: 11500000, guid: 54d21f6ece3b46479f0c328f8c6007e0, type: 3}
  m_Name: Gold
  m_EditorClassIdentifier: 
  colorMode: 3
  topLeft: {r: 1, g: 0.88503516, b: 0.504717, a: 1}
  topRight: {r: 0.754717, g: 0.56851435, b: 0, a: 1}
  bottomLeft: {r: 0.5566038, g: 0.54415536, b: 0.034131378, a: 1}
  bottomRight: {r: 0.8301887, g: 0.7579817, b: 0.090067655, a: 1}
