%YAML 1.1
%TAG !u! tag:unity3d.com,2011:
--- !u!114 &11400000
MonoBehaviour:
  m_ObjectHideFlags: 0
  m_CorrespondingSourceObject: {fileID: 0}
  m_PrefabInstance: {fileID: 0}
  m_PrefabAsset: {fileID: 0}
  m_GameObject: {fileID: 0}
  m_Enabled: 1
  m_EditorHideFlags: 0
  m_Script: {fileID: 11500000, guid: fd5edc52ccca70d418329c1e55e236eb, type: 3}
  m_Name: Longsword
  m_EditorClassIdentifier: 
  id: 8
  prefab: {fileID: 5225267676788143099, guid: 61ea70bc555a07e469a9eb4e2933cdc9, type: 3}
  itemType: damage
  itemName: Longsword
  damage: 14
  magic: 0
  shield: 0
  heal: 0
  defense: 0
  magicDefense: 0
  hp: 0
  recipe: {fileID: 11400000, guid: 017ffa6d687bd4a4c870019d62f43cbe, type: 2}
