%YAML 1.1
%TAG !u! tag:unity3d.com,2011:
--- !u!1 &6196548438474329455
GameObject:
  m_ObjectHideFlags: 0
  m_CorrespondingSourceObject: {fileID: 0}
  m_PrefabInstance: {fileID: 0}
  m_PrefabAsset: {fileID: 0}
  serializedVersion: 6
  m_Component:
  - component: {fileID: 4511275613429141080}
  - component: {fileID: 7454389958801555800}
  m_Layer: 0
  m_Name: level_5_rabbit
  m_TagString: Untagged
  m_Icon: {fileID: 0}
  m_NavMeshLayer: 0
  m_StaticEditorFlags: 0
  m_IsActive: 1
--- !u!4 &4511275613429141080
Transform:
  m_ObjectHideFlags: 0
  m_CorrespondingSourceObject: {fileID: 0}
  m_PrefabInstance: {fileID: 0}
  m_PrefabAsset: {fileID: 0}
  m_GameObject: {fileID: 6196548438474329455}
  m_LocalRotation: {x: 0, y: 0, z: 0, w: 1}
  m_LocalPosition: {x: 211.31067, y: 181.96577, z: -146650.23}
  m_LocalScale: {x: 1, y: 1, z: 1}
  m_Children: []
  m_Father: {fileID: 0}
  m_RootOrder: 0
  m_LocalEulerAnglesHint: {x: 0, y: 0, z: 0}
--- !u!114 &7454389958801555800
MonoBehaviour:
  m_ObjectHideFlags: 0
  m_CorrespondingSourceObject: {fileID: 0}
  m_PrefabInstance: {fileID: 0}
  m_PrefabAsset: {fileID: 0}
  m_GameObject: {fileID: 6196548438474329455}
  m_Enabled: 1
  m_EditorHideFlags: 0
  m_Script: {fileID: 11500000, guid: ae8c707384035b94bb7795d3d68aee32, type: 3}
  m_Name: 
  m_EditorClassIdentifier: 
  maxHealth: 860
  currentHealth: -20
  damage: 70
  magic: 0
  defense: 0
  magicDefense: 0
  baseHitRate: 70
  enemyName: Rabbit
  enemyCategory: None
  healthBar: {fileID: 0}
