%YAML 1.1
%TAG !u! tag:unity3d.com,2011:
--- !u!114 &11400000
MonoBehaviour:
  m_ObjectHideFlags: 0
  m_CorrespondingSourceObject: {fileID: 0}
  m_PrefabInstance: {fileID: 0}
  m_PrefabAsset: {fileID: 0}
  m_GameObject: {fileID: 0}
  m_Enabled: 1
  m_EditorHideFlags: 0
  m_Script: {fileID: 11500000, guid: f0902c4fb54219546b396c9bc002d830, type: 3}
  m_Name: Resource
  m_EditorClassIdentifier: 
  prefab: {fileID: 3462730846002878012, guid: f591743240669684781de422f3c8807e, type: 3}
  itemType: mana
  itemName: Mana
