%YAML 1.1
%TAG !u! tag:unity3d.com,2011:
--- !u!1045 &1
EditorBuildSettings:
  m_ObjectHideFlags: 0
  serializedVersion: 2
  m_Scenes:
  - enabled: 1
    path: Assets/Scenes/MainMenuScene.unity
    guid: 9e31a65b6c30c5940946794b9fba2fa7
  - enabled: 0
    path: Assets/Scenes/ArcadeScene.unity
    guid: 2cda990e2423bbf4892e6590ba056729
  - enabled: 1
    path: Assets/Scenes/KingdomScene.unity
    guid: 2acf4ccc793c1ac4f95032d9d619055f
  - enabled: 1
    path: Assets/Scenes/BoardScene.unity
    guid: 2667dd40e2f5ac74aba38acb947ff9b9
  - enabled: 1
    path: Assets/Scenes/ProfileScene.unity
    guid: 16ad77762cd4eef4a9920022a98a8045
  - enabled: 1
    path: Assets/Scenes/ShopScene.unity
    guid: 45a66a7bb49630a4fa606939371a39d3
  - enabled: 1
    path: Assets/Scenes/ForgeScene.unity
    guid: 62ba7718b0ff0e442a8a3609f25d5747
  - enabled: 1
    path: Assets/Scenes/FarmScene.unity
    guid: a93557300269d2f4eb1bd9944a6da849
  - enabled: 1
    path: Assets/Scenes/InputNameScene.unity
    guid: ec5d4cc1c4cae454f986a81b2035cf4b
  - enabled: 1
    path: Assets/Scenes/LoadScene.unity
    guid: d940f99e5b5b61744bb4b9b969d69939
  - enabled: 1
    path: Assets/Scenes/TutorialScene.unity
    guid: d2b844f257825854c86f66dc9998299d
  m_configObjects: {}
