%YAML 1.1
%TAG !u! tag:unity3d.com,2011:
--- !u!114 &11400000
MonoBehaviour:
  m_ObjectHideFlags: 0
  m_CorrespondingSourceObject: {fileID: 0}
  m_PrefabInstance: {fileID: 0}
  m_PrefabAsset: {fileID: 0}
  m_GameObject: {fileID: 0}
  m_Enabled: 1
  m_EditorHideFlags: 0
  m_Script: {fileID: 11500000, guid: fd5edc52ccca70d418329c1e55e236eb, type: 3}
  m_Name: BasicLeatherBoots
  m_EditorClassIdentifier: 
  id: 4
  prefab: {fileID: 1803920205966910979, guid: 7556318de9cac8d4f8a132fcedee47aa, type: 3}
  itemType: boots
  itemName: Basic Leather Boots
  damage: 0
  magic: 0
  shield: 0
  heal: 0
  hp: 0
  recipe: {fileID: 0}
