%YAML 1.1
%TAG !u! tag:unity3d.com,2011:
--- !u!114 &11400000
MonoBehaviour:
  m_ObjectHideFlags: 0
  m_CorrespondingSourceObject: {fileID: 0}
  m_PrefabInstance: {fileID: 0}
  m_PrefabAsset: {fileID: 0}
  m_GameObject: {fileID: 0}
  m_Enabled: 1
  m_EditorHideFlags: 0
  m_Script: {fileID: 11500000, guid: a6a476405d3fcbe4497b847a476ab95b, type: 3}
  m_Name: Farm Forest Level
  m_EditorClassIdentifier: 
  enemyPrefab: {fileID: 5486181630385573879, guid: 9ca691df14df5614b8ac32fd5deb03b4,
    type: 3}
  startDialogue: {fileID: 0}
  endDialogue: {fileID: 0}
  category: forest
  levelName: Forest
  gold: 0
  exp: 35
  leather: 0
  wood: 7
  stone: 0
  moves: 15
  levelRequirement: 2
  requirement: {fileID: 0}
  blacksmith: 0
  shopKeeper: 0
  artisan: 0
  doctor: 0
  names:
  - Bush
  - Tree
  - Sequoia
  sentences:
  - You run through a small forest. After running without seeing anything interesting,
    you face a cute bush...
  - You walk through a forest. You enjoy the landscapes and suddenly face a mysterious
    tree...
  - You sneak through a deep forest. After all the leaves which blocked your way
    are gently cleared away, you face a threatening sequoia...
