%YAML 1.1
%TAG !u! tag:unity3d.com,2011:
--- !u!114 &11400000
MonoBehaviour:
  m_ObjectHideFlags: 0
  m_CorrespondingSourceObject: {fileID: 0}
  m_PrefabInstance: {fileID: 0}
  m_PrefabAsset: {fileID: 0}
  m_GameObject: {fileID: 0}
  m_Enabled: 1
  m_EditorHideFlags: 0
  m_Script: {fileID: 11500000, guid: a6a476405d3fcbe4497b847a476ab95b, type: 3}
  m_Name: Level 19
  m_EditorClassIdentifier: 
  enemyPrefab: {fileID: 9116657587699999261, guid: 8b16d7da69943524b9587ec52bcbd1df,
    type: 3}
  startDialogue: {fileID: 0}
  endDialogue: {fileID: 0}
  category: main
  levelName: None
  gold: 82
  exp: 200
  leather: 10
  wood: 15
  stone: 18
  moves: -1
  levelRequirement: -1
  requirement: {fileID: 0}
  blacksmith: 0
  shopKeeper: 0
  artisan: 0
  doctor: 1
  names: []
  sentences: []
