%YAML 1.1
%TAG !u! tag:unity3d.com,2011:
--- !u!114 &11400000
MonoBehaviour:
  m_ObjectHideFlags: 0
  m_CorrespondingSourceObject: {fileID: 0}
  m_PrefabInstance: {fileID: 0}
  m_PrefabAsset: {fileID: 0}
  m_GameObject: {fileID: 0}
  m_Enabled: 1
  m_EditorHideFlags: 0
  m_Script: {fileID: 11500000, guid: fd5edc52ccca70d418329c1e55e236eb, type: 3}
  m_Name: PotionVial
  m_EditorClassIdentifier: 
  id: 20
  prefab: {fileID: 4569278563416934060, guid: 235767474bd1873438c92bd71c192fbd, type: 3}
  itemType: heal
  itemName: Potion Vial
  damage: 5
  magic: 0
  shield: 0
  heal: 2
  hp: 0
  recipe: {fileID: 0}
