%YAML 1.1
%TAG !u! tag:unity3d.com,2011:
--- !u!114 &11400000
MonoBehaviour:
  m_ObjectHideFlags: 0
  m_CorrespondingSourceObject: {fileID: 0}
  m_PrefabInstance: {fileID: 0}
  m_PrefabAsset: {fileID: 0}
  m_GameObject: {fileID: 0}
  m_Enabled: 1
  m_EditorHideFlags: 0
  m_Script: {fileID: 11500000, guid: fd5edc52ccca70d418329c1e55e236eb, type: 3}
  m_Name: PotionBottle
  m_EditorClassIdentifier: 
  id: 19
  prefab: {fileID: 708166537821500117, guid: 02112e71f7f98fa4aa855c5ee239ee1a, type: 3}
  itemType: heal
  itemName: Potion Bottle
  damage: 0
  magic: 0
  shield: 0
  heal: 3
  hp: 0
  recipe: {fileID: 0}
