%YAML 1.1
%TAG !u! tag:unity3d.com,2011:
--- !u!114 &11400000
MonoBehaviour:
  m_ObjectHideFlags: 0
  m_CorrespondingSourceObject: {fileID: 0}
  m_PrefabInstance: {fileID: 0}
  m_PrefabAsset: {fileID: 0}
  m_GameObject: {fileID: 0}
  m_Enabled: 1
  m_EditorHideFlags: 0
  m_Script: {fileID: 11500000, guid: fd5edc52ccca70d418329c1e55e236eb, type: 3}
  m_Name: IronArmor
  m_EditorClassIdentifier: 
  id: 2
  prefab: {fileID: 6223684119321796280, guid: 02ff016a81626024399c1edd16a56463, type: 3}
  itemType: body
  itemName: Iron Armor
  damage: 0
  magic: 0
  shield: 0
  heal: 0
  defense: 20
  magicDefense: 0
  hp: 300
  recipe: {fileID: 11400000, guid: e9a225ba524e13a41acbf1a487140d9f, type: 2}
