%YAML 1.1
%TAG !u! tag:unity3d.com,2011:
--- !u!114 &11400000
MonoBehaviour:
  m_ObjectHideFlags: 0
  m_CorrespondingSourceObject: {fileID: 0}
  m_PrefabInstance: {fileID: 0}
  m_PrefabAsset: {fileID: 0}
  m_GameObject: {fileID: 0}
  m_Enabled: 1
  m_EditorHideFlags: 0
  m_Script: {fileID: 11500000, guid: fd5edc52ccca70d418329c1e55e236eb, type: 3}
  m_Name: MagicIronArmor
  m_EditorClassIdentifier: 
  id: -1
  prefab: {fileID: 6223684119321796280, guid: d0630793b8a51174c8729f9d86c0d518, type: 3}
  itemType: body
  itemName: Magic Iron Armor
  damage: 0
  magic: 0
  shield: 0
  heal: 0
  defense: 35
  magicDefense: 15
  hp: 450
  recipe: {fileID: 11400000, guid: accf3d95e1ce69543abf9e52c2c3e229, type: 2}
