%YAML 1.1
%TAG !u! tag:unity3d.com,2011:
--- !u!114 &11400000
MonoBehaviour:
  m_ObjectHideFlags: 0
  m_CorrespondingSourceObject: {fileID: 0}
  m_PrefabInstance: {fileID: 0}
  m_PrefabAsset: {fileID: 0}
  m_GameObject: {fileID: 0}
  m_Enabled: 1
  m_EditorHideFlags: 0
  m_Script: {fileID: 11500000, guid: 364b7ebbcfd90bd45a5bb031d8551c47, type: 3}
  m_Name: IronHelmetRecipe
  m_EditorClassIdentifier: 
  wood: 0
  leather: 20
  stone: 90
  magicStone: 50
  gold: 150
